{
    "balance_jets": false,
    "balance_particles": false,
    "batch_size": 2048,
    "classification_loss_scale": 0.0,
    "combinatorial_scale": 0.0,
    "combine_pair_loss": "softmin",
    "dataset_limit": 1.0,
    "dropout": 0.0,
    "epochs": 50,
    "event_info_file": "./event_files/ttbarhiggs.ini",
    "focal_gamma": 0.0,
    "gradient_clip": 0.0,
    "hidden_dim": 128,
    "initial_embedding_dim": 16,
    "kl_loss_scale": 0.0,
    "l2_penalty": 0.0002,
    "learning_rate": 0.0015,
    "learning_rate_cycles": 0,
    "learning_rate_warmup_epochs": 1.0,
    "linear_prelu_activation": true,
    "mask_sequence_vectors": true,
    "normalization": "LayerNorm",
    "normalize_features": true,
    "num_attention_heads": 8,
    "num_branch_classification_layers": 1,
    "num_branch_embedding_layers": 5,
    "num_branch_encoder_layers": 3,
    "num_dataloader_workers": 16,
    "num_embedding_layers": 10,
    "num_encoder_layers": 6,
    "num_gpu": 1,
    "num_jet_embedding_layers": 0,
    "num_jet_encoder_layers": 1,
    "optimizer": "AdamW",
    "partial_events": false,
    "skip_connections": true,
    "split_symmetric_attention": true,
    "testing_file": "",
    "train_validation_split": 0.95,
    "training_file": "./data/ttbarhiggs/ttbarhiggs_training.h5",
    "transformer_activation": "gelu",
    "trial_output_dir": "",
    "trial_time": "",
    "usable_gpus": "",
    "validation_file": "./data/ttbarhiggs/ttbarhiggs_validation.h5",
    "verbose_output": true
}

